{
  "files": {
    "/components/component.js.template": "/_COMPNT_/_APPNAME_._COMPNT_.component.js",
    "/components/component.spec.js.template": "/_COMPNT_/_APPNAME_._COMPNT_.component.spec.js",
    "/components/view.html.template": "/_COMPNT_/_APPNAME_._COMPNT_.view.html"
  },
  "directories": [
    "/_COMPNT_",
    "/_COMPNT_/multilanguage"
  ]
}
